Preliminary Report
…
dim(poverty_by_sex_edu_attainment)

## [1] 14099     5

length(unique(poverty_by_sex_edu_attainment$NAME))

## [1] 613

poverty_by_sex_edu_attainment[,-c(5)]

## # A tibble: 14,099 x 4
##    GEOID   NAME                             variable                    estimate
##    <chr>   <chr>                            <chr>                          <dbl>
##  1 3900094 Monroe Local School District, O~ total_population                9268
##  2 3900094 Monroe Local School District, O~ below_poverty_num                230
##  3 3900094 Monroe Local School District, O~ below_poverty_num_men             60
##  4 3900094 Monroe Local School District, O~ M_below_poverty_less_than_~       10
##  5 3900094 Monroe Local School District, O~ M_below_poverty_HS                50
##  6 3900094 Monroe Local School District, O~ M_below_poverty_some_colle~        0
##  7 3900094 Monroe Local School District, O~ M_below_poverty_bachelor_p~        0
##  8 3900094 Monroe Local School District, O~ below_poverty_num_women          170
##  9 3900094 Monroe Local School District, O~ W_below_poverty_less_than_~       10
## 10 3900094 Monroe Local School District, O~ W_below_poverty_HS               120
## # ... with 14,089 more rows
…
